[[ 20.   1.  17.   1.   2.   1. 153.   3.]
 [  2.   1. 153.   3.  17.   1.  20.   1.]
 [ 17.   1.  20.   1. 153.   3. 215.   3.]
 [ 20.   1.  17.   1.   2.   1. 153.   3.]
 [ 20.   1. 153.   3. 215.   3.  17.   1.]
 [ 20.   1.   2.   1.  17.   1. 153.   3.]
 [ 20.   1.  17.   1. 153.   3.   2.   1.]
 [153.   3. 215.   3.  17.   1.  20.   1.]
 [  2.   1. 215.   3.  20.   1. 168.   3.]
 [ 20.   1.  17.   1.   2.   1. 153.   3.]]
[[ 282. 1037.]
 [ 282. 1037.]
 [ 279. 1097.]
 [ 282. 1037.]
 [ 279. 1097.]
 [ 282. 1037.]
 [ 282. 1037.]
 [ 279. 1097.]
 [ 280. 1120.]
 [ 282. 1037.]]