[[ 14.   1. 191.   3. 185.   3.   1.   1. 210.   3. 192.   3.  22.   1.
  195.   3.   2.   1.  12.   1. 215.   3.  29.   1.]
 [185.   3. 215.   3. 225.   3.  29.   1. 210.   3. 192.   3. 191.   3.
    1.   1.   2.   1. 195.   3. 211.   3.  22.   1.]
 [185.   3. 215.   3. 233.   3.  29.   1.  12.   1.  14.   1.   1.   1.
    2.   1. 225.   3. 227.   3. 210.   3.  22.   1.]
 [  1.   1. 191.   3. 225.   3. 230.   3.   2.   1.  14.   1.  22.   1.
  211.   3. 185.   3.  29.   1. 192.   3. 210.   3.]
 [205.   3. 185.   3. 192.   3.   4.   1. 210.   3. 196.   3. 233.   3.
    2.   1. 225.   3. 191.   3.  29.   1.   1.   1.]
 [185.   3.   1.   1. 210.   3. 225.   3. 192.   3. 205.   3. 191.   3.
   25.   1.   2.   1. 233.   3.  29.   1.  22.   1.]
 [191.   3.  12.   1.  29.   1.   1.   1. 210.   3. 211.   3.  22.   1.
    2.   1. 215.   3. 185.   3. 225.   3. 192.   3.]
 [210.   3.  12.   1.   1.   1. 195.   3.   2.   1. 192.   3.   4.   1.
  233.   3. 185.   3.  29.   1. 225.   3. 191.   3.]
 [210.   3. 193.   3.  22.   1.  29.   1. 211.   3. 192.   3.   2.   1.
    4.   1. 191.   3. 225.   3. 185.   3. 233.   3.]
 [192.   3.  29.   1. 210.   3. 195.   3.   2.   1. 185.   3.   1.   1.
   22.   1. 191.   3.  12.   1. 225.   3. 205.   3.]]
[[-27. 249.]
 [-33. 249.]
 [-27. 270.]
 [-30. 247.]
 [-27. 255.]
 [-27. 244.]
 [-33. 246.]
 [-31. 257.]
 [-29. 263.]
 [-29. 236.]]