[[1. 3. 1. 2. 1. 5. 1. 1. 1. 4.]
 [1. 3. 1. 1. 1. 4. 1. 5. 3. 1.]
 [1. 5. 1. 1. 1. 4. 1. 3. 3. 1.]
 [1. 1. 1. 2. 1. 5. 2. 1. 1. 3.]
 [1. 3. 1. 1. 1. 4. 5. 1. 1. 5.]
 [1. 1. 1. 3. 1. 4. 1. 2. 1. 5.]
 [1. 4. 1. 1. 1. 3. 1. 2. 1. 5.]
 [1. 3. 1. 4. 1. 1. 1. 2. 1. 5.]
 [1. 4. 1. 3. 1. 2. 1. 5. 1. 1.]
 [1. 3. 1. 1. 1. 2. 1. 5. 1. 4.]]
[[ 88. 192.]
 [ 92. 250.]
 [ 92. 250.]
 [ 92. 236.]
 [ 92. 262.]
 [ 88. 192.]
 [ 88. 192.]
 [ 88. 192.]
 [ 88. 192.]
 [ 88. 192.]]