[[1. 4. 1. 3. 1. 1. 1. 5. 6. 1.]
 [1. 5. 1. 3. 1. 2. 1. 1. 1. 4.]
 [1. 2. 1. 1. 1. 4. 1. 5. 1. 3.]
 [1. 2. 1. 3. 1. 1. 1. 5. 2. 1.]
 [1. 4. 1. 3. 1. 1. 1. 5. 6. 1.]
 [2. 1. 1. 5. 1. 4. 1. 3. 1. 1.]
 [1. 3. 1. 2. 1. 4. 1. 5. 2. 1.]
 [1. 3. 2. 1. 1. 2. 1. 5. 1. 1.]
 [1. 4. 1. 5. 6. 1. 1. 3. 1. 1.]
 [2. 1. 1. 3. 1. 4. 1. 5. 5. 1.]]
[[ -1. 260.]
 [ -5. 192.]
 [ -5. 192.]
 [ -1. 236.]
 [ -1. 260.]
 [ -1. 234.]
 [ -1. 237.]
 [ -1. 236.]
 [ -1. 260.]
 [ -1. 307.]]