[[1. 2. 1. 1.]
 [1. 2. 1. 1.]
 [1. 2. 1. 1.]
 [1. 1. 1. 2.]
 [1. 2. 1. 1.]
 [1. 2. 1. 1.]
 [1. 1. 1. 2.]
 [1. 1. 1. 2.]
 [1. 1. 1. 2.]
 [1. 2. 1. 1.]]
[[-10.   7.]
 [-10.   7.]
 [-10.   7.]
 [-10.   7.]
 [-10.   7.]
 [-10.   7.]
 [-10.   7.]
 [-10.   7.]
 [-10.   7.]
 [-10.   7.]]