[[1. 2. 1. 1.]
 [1. 1. 1. 2.]
 [1. 1. 1. 2.]
 [1. 1. 1. 2.]
 [1. 1. 1. 2.]
 [1. 2. 1. 1.]
 [1. 1. 1. 2.]
 [1. 1. 1. 2.]
 [1. 2. 1. 1.]
 [1. 1. 1. 2.]]
[[11.  7.]
 [11.  7.]
 [11.  7.]
 [11.  7.]
 [11.  7.]
 [11.  7.]
 [11.  7.]
 [11.  7.]
 [11.  7.]
 [11.  7.]]