[[192.   3. 225.   3. 185.   3.]
 [210.   3. 185.   3.   2.   1.]
 [192.   3. 185.   3. 225.   3.]
 [185.   3. 225.   3. 211.   3.]
 [210.   3. 185.   3.   2.   1.]
 [ 29.   1. 185.   3.   2.   1.]
 [210.   3. 185.   3.   2.   1.]
 [225.   3. 192.   3. 185.   3.]
 [225.   3. 185.   3. 192.   3.]
 [185.   3.  22.   1.   2.   1.]]
[[-11. 494.]
 [ -7. 458.]
 [-11. 494.]
 [ -9. 508.]
 [ -7. 458.]
 [ -8. 466.]
 [ -7. 458.]
 [-11. 494.]
 [-11. 494.]
 [ -5. 460.]]