[[192.   3. 225.   3. 185.   3.]
 [185.   3. 210.   3.   2.   1.]
 [192.   3. 185.   3. 225.   3.]
 [185.   3.   2.   1.  29.   1.]
 [  2.   1. 192.   3. 185.   3.]
 [210.   3.   2.   1. 185.   3.]
 [225.   3. 192.   3. 185.   3.]
 [185.   3. 225.   3. 192.   3.]
 [185.   3.   2.   1.   1.   1.]
 [  2.   1. 185.   3. 192.   3.]]
[[202. 494.]
 [206. 458.]
 [202. 494.]
 [204. 466.]
 [205. 462.]
 [206. 458.]
 [202. 494.]
 [202. 494.]
 [207. 461.]
 [205. 462.]]