[[  8,   1,   6,   1, 204,   3, 215,   3,  26,   1,   3,   1, 154,   3, 20,   1, 153,   3,  17,   1,  94,   2,  10,   1, 174,   3,  14,   1,187,   3,   2,   1, 168,   3]
 [153,   3, 168,   3, 163,   3,   2,   1,  10,   1,   3,   1,   6,   1,204,   3,  14,   1,  45,   2,  20,   1, 198,   3, 155,   3,  17,   1,170,   3, 156,   3,   8,   1]
 [ 17,   1,  20,   1, 153,   3,  10,   1,   2,   1,  14,   1, 198,   3,156,   3,  45,   2, 212,   3, 168,   3,   4,   1, 155,   3,   8,   1,  3,   1,   6,   1, 215,   3]
 [  2,   1, 215,   3, 154,   3,   8,   1, 168,   3,  20,   1, 155,   3,231,   2,   6,   1, 164,   3, 214,   3,  10,   1,   3,   1,  17,   1, 14,   1,  95,   2, 153,   3]
 [ 17,   1, 153,   3, 155,   3,   5,   1, 215,   3,   3,   1, 198,   3,202,   2, 168,   3, 156,   3, 163,   3, 160,   3,   2,   1,  14,   1,  8,   1,  94,   2,  20,   1]
 [ 14,   1,  20,   1,   6,   1, 201,   3, 210,   3,   3,   1, 153,   3,  2,   1, 214,   3,  17,   1,  10,   1, 215,   3, 186,   3, 189,   3,143,   2, 170,   3, 168,   3]
 [ 10,   1, 153,   3, 215,   3,   3,   1, 187,   3,   2,   1, 168,   3,170,   3,   6,   1, 155,   3,  95,   2, 202,   2,   8,   1,  20,   1, 17,   1, 156,   3, 154,   3]
 [156,   3,   5,   1,   2,   1,  14,   1,   3,   1, 205,   3,  20,   1,153,   3, 155,   3, 186,   3,  17,   1, 210,   3, 160,   3, 168,   3,  1,   1,  10,   1, 215,   3]
 [198,   2, 210,   3, 198,   3,   3,   1, 168,   3, 204,   3,  17,   1,154,   3, 155,   3, 153,   3,  14,   1, 231,   2, 156,   3,   2,   1,187,   3,  20,   1, 170,   3]
 [ 17,   1,   2,   1,  20,   1,  95,   2, 155,   3, 154,   3, 170,   3,168,   3, 153,   3,  10,   1, 174,   3,  14,   1,   5,   1, 214,   3,163,   3,   8,   1, 156,   3]]
[[244, 513]
 [252, 538]
 [247, 522]
 [249, 504]
 [243, 610]
 [253, 571]
 [248, 527]
 [247, 582]
 [250, 597]
 [257, 553]]