[[ 10,   1, 153,   3,   6,   1,  17,   1,   8,   1, 155,   3, 208,   2,143,   2,   3,   1, 201,   3,   9,   1, 184,   3,  20,   1, 170,   3,215,   3, 168,   3,   2,   1]
 [ 10,   1,  17,   1,  95,   2,   3,   1, 103,   2, 168,   3, 174,   3,154,   3,  20,   1, 155,   3,  14,   1, 156,   3, 210,   3,   2,   1,173,   3, 215,   3, 153,   3]
 [170,   3, 153,   3, 154,   3, 170,   2,   4,   1,  14,   1, 257,   2,215,   3,  17,   1,   2,   1,  10,   1, 156,   3, 168,   3,  44,   2, 20,   1,   3,   1, 187,   3]
 [174,   3, 210,   3, 168,   3,  17,   1, 155,   3,  20,   1,  95,   2, 10,   1, 270,   2, 186,   3,  14,   1, 211,   3, 153,   3, 103,   2,170,   3, 156,   3,   3,   1]
 [163,   3, 210,   3, 170,   3, 190,   3, 156,   3,  61,   2,   8,   1, 46,   2,   3,   1,   9,   1, 215,   3,   2,   1, 168,   3, 201,   3,155,   3,  20,   1, 164,   3]
 [  3,   1, 155,   3, 264,   2, 168,   3, 187,   3, 210,   3,  20,   1,  2,   1,  14,   1, 156,   3, 164,   3, 172,   3, 153,   3,  10,   1,215,   3, 154,   3, 190,   3]
 [260,   2, 210,   3, 187,   3,  20,   1, 133,   2,   8,   1,   3,   1,168,   3, 217,   3, 156,   3, 201,   3, 155,   3, 153,   3,  10,   1,150,   3,  14,   1,   9,   1]
 [  3,   1,   2,   1, 168,   3, 210,   3,   8,   1, 170,   3, 156,   3,  4,   1, 154,   3, 153,   3, 150,   3, 163,   3,   5,   1, 172,   3, 10,   1,  17,   1, 155,   3]
 [187,   3, 147,   2,  17,   1, 210,   3, 201,   3, 156,   3, 183,   3, 10,   1, 153,   3, 190,   3,  95,   2,   8,   1, 215,   3, 155,   3,154,   3, 173,   3, 168,   3]
 [  3,   1, 175,   2, 155,   3, 215,   3,  17,   1, 154,   3, 168,   3,  6,   1, 211,   3,  10,   1, 163,   3, 153,   3,  14,   1, 187,   3, 85,   2, 156,   3, 186,   3]]
[[-27, 593]
 [-34, 571]
 [-31, 569]
 [-16, 687]
 [-22, 797]
 [-28, 624]
 [-16, 750]
 [-20, 676]
 [ -9, 777]
 [-14, 722]]