[[170,   3,  14,   1, 153,   3, 173,   3,   8,   1, 155,   3,  10,   1, 17,   1,   2,   1, 172,   3,  20,   1, 154,   3, 212,   3,   4,   1,168,   3, 215,   3,   3,   1]
 [187,   3, 154,   3, 215,   3, 153,   3,   3,   1, 204,   3, 155,   3, 14,   1, 168,   3,  17,   1,  20,   1, 231,   2,   6,   1,   2,   1,198,   3, 156,   3,  10,   1]
 [  8,   1,  17,   1,  10,   1, 153,   3,  14,   1,   6,   1, 168,   3,212,   3, 170,   3, 154,   3, 210,   3,   2,   1, 215,   3,  20,   1,155,   3, 156,   3,   3,   1]
 [ 14,   1, 186,   3,   6,   1,   2,   1,   3,   1, 160,   3,  10,   1,168,   3, 187,   3, 154,   3, 210,   3, 153,   3, 170,   3, 215,   3,  8,   1,  20,   1,  17,   1]
 [215,   3, 155,   3,  17,   1,   2,   1, 170,   3,   5,   1,   6,   1,212,   3,   8,   1, 168,   3,  20,   1, 187,   3,  14,   1, 153,   3,154,   3,   3,   1,  10,   1]
 [215,   3, 168,   3, 154,   3, 170,   3,  14,   1, 187,   3, 153,   3,  8,   1,   2,   1,  17,   1,   3,   1, 212,   3,   6,   1,  20,   1,155,   3, 198,   3,  10,   1]
 [ 20,   1, 215,   3, 153,   3,   2,   1,   3,   1,  17,   1, 154,   3,168,   3, 172,   3, 210,   3, 187,   3,  14,   1,   4,   1, 156,   3,  6,   1, 155,   3,  10,   1]
 [ 10,   1,   2,   1, 204,   3,   3,   1,  17,   1,  14,   1, 215,   3,173,   3, 153,   3, 175,   2, 160,   3, 156,   3, 170,   3, 154,   3, 20,   1, 168,   3, 155,   3]
 [173,   3,   9,   1,   2,   1, 201,   3,   3,   1, 212,   3,  10,   1,215,   3, 170,   3,   8,   1, 155,   3, 153,   3, 168,   3,  17,   1, 20,   1, 154,   3,  14,   1]
 [  3,   1, 160,   3, 154,   3,  10,   1, 155,   3,  20,   1, 170,   3,168,   3,  17,   1, 153,   3, 210,   3,   2,   1, 173,   3,  14,   1,215,   3, 212,   3,   8,   1]]
[[-36, 492]
 [-36, 524]
 [-35, 469]
 [-31, 461]
 [-33, 449]
 [-34, 450]
 [-37, 527]
 [-39, 550]
 [-37, 497]
 [-36, 481]]