[[170,   3, 212,   3,  14,   1, 204,   3, 168,   3, 173,   3,  17,   1,153,   3, 154,   3, 155,   3,  10,   1, 215,   3,  20,   1,   3,   1,156,   3,   8,   1,   2,   1]
 [168,   3, 215,   3, 156,   3,  10,   1, 163,   3, 212,   3,   3,   1,154,   3,  17,   1, 155,   3,  20,   1,   8,   1, 153,   3, 170,   3, 14,   1, 186,   3,   2,   1]
 [ 17,   1,  20,   1, 168,   3, 153,   3,   8,   1, 154,   3,  10,   1,155,   3,   2,   1,   3,   1,  14,   1, 170,   3, 215,   3, 186,   3,160,   3, 173,   3, 156,   3]
 [ 14,   1, 168,   3, 212,   3, 186,   3, 215,   3, 154,   3, 170,   3,  2,   1,   6,   1,  20,   1, 173,   3, 155,   3,  10,   1, 153,   3, 17,   1,   3,   1,   8,   1]
 [153,   3, 155,   3,  20,   1, 215,   3, 154,   3,   2,   1, 187,   3,168,   3, 212,   3,  17,   1,   8,   1, 164,   3,   3,   1,  14,   1, 10,   1, 210,   3, 170,   3]
 [  8,   1,   6,   1,  17,   1,  10,   1, 153,   3,  20,   1, 154,   3, 14,   1, 160,   3,   2,   1,   3,   1, 170,   3, 187,   3, 215,   3,155,   3, 156,   3, 168,   3]
 [156,   3,  10,   1, 198,   3, 173,   3,  20,   1, 155,   3,   3,   1,170,   3,   2,   1, 215,   3,  14,   1, 154,   3, 204,   3, 168,   3,153,   3, 160,   3,  17,   1]
 [154,   3, 170,   3, 153,   3,   6,   1, 215,   3,  20,   1, 173,   3, 14,   1, 187,   3, 168,   3,   3,   1, 212,   3,  17,   1, 155,   3, 10,   1,   8,   1,   2,   1]
 [ 20,   1, 198,   3,  14,   1, 153,   3,   2,   1, 154,   3, 190,   3,215,   3,   3,   1,   8,   1,  10,   1, 212,   3, 173,   3, 168,   3,211,   3, 187,   3,  17,   1]
 [ 20,   1, 170,   3,   2,   1, 155,   3, 168,   3, 187,   3, 212,   3, 17,   1,   3,   1,  14,   1, 154,   3, 153,   3,   6,   1, 186,   3, 10,   1, 215,   3,   8,   1]]
[[-37, 484]
 [-35, 477]
 [-37, 482]
 [-35, 464]
 [-33, 462]
 [-35, 458]
 [-38, 535]
 [-36, 453]
 [-33, 495]
 [-33, 445]]