[[9. 2.]
 [9. 2.]
 [4. 2.]
 [9. 2.]
 [4. 2.]
 [9. 2.]
 [9. 2.]
 [4. 2.]
 [9. 2.]
 [9. 2.]]
[[-3.  1.]
 [-3.  1.]
 [-3.  1.]
 [-3.  1.]
 [-3.  1.]
 [-3.  1.]
 [-3.  1.]
 [-3.  1.]
 [-3.  1.]
 [-3.  1.]]