[[5. 1.]
 [5. 1.]
 [5. 1.]
 [5. 1.]
 [5. 1.]
 [5. 1.]
 [5. 1.]
 [5. 1.]
 [5. 1.]
 [5. 1.]]
[[10.  1.]
 [10.  1.]
 [10.  1.]
 [10.  1.]
 [10.  1.]
 [10.  1.]
 [10.  1.]
 [10.  1.]
 [10.  1.]
 [10.  1.]]