[[ 17.   1.  14.   1. 156.   3. 153.   3. 215.   3. 186.   3. 154.   3.
   20.   1. 168.   3. 155.   3.   6.   1.   2.   1. 173.   3.   8.   1.
   10.   1.   3.   1. 210.   3.]
 [  3.   1.   2.   1.  10.   1. 156.   3. 215.   3. 153.   3.  17.   1.
  155.   3. 181.   2.  20.   1. 163.   3.  14.   1. 154.   3. 198.   3.
  168.   3. 185.   2. 187.   3.]
 [170.   3. 154.   3. 198.   2.   2.   1.  10.   1.  20.   1. 215.   3.
  155.   3. 153.   3. 156.   3. 204.   3.  14.   1.  17.   1.  94.   2.
    3.   1. 173.   3. 168.   3.]
 [168.   3. 198.   2. 156.   3. 170.   3.   2.   1. 153.   3.  14.   1.
  163.   3. 215.   3. 155.   3.  17.   1.   3.   1. 160.   3. 154.   3.
   10.   1.  20.   1. 173.   3.]
 [  8.   1.   6.   1. 168.   3.  17.   1. 154.   3. 187.   3. 210.   3.
  155.   3.   2.   1. 170.   3. 215.   3.  20.   1.  10.   1. 153.   3.
  212.   3.  14.   1.   3.   1.]
 [ 20.   1.  10.   1. 168.   3. 198.   2.   3.   1. 156.   3. 154.   3.
  210.   3. 170.   3.  17.   1. 153.   3. 155.   3.  14.   1. 190.   3.
  173.   3.   2.   1. 215.   3.]
 [ 10.   1. 175.   2.  17.   1.   8.   1. 215.   3. 168.   3. 163.   3.
   14.   1.  20.   1. 154.   3. 211.   3.   2.   1.   3.   1. 198.   3.
  173.   3. 153.   3. 204.   3.]
 [ 14.   1. 163.   3. 211.   3. 173.   3.   2.   1.   8.   1.  10.   1.
  215.   3. 170.   3. 200.   3. 154.   3. 155.   3.  20.   1.   3.   1.
  153.   3.  17.   1. 168.   3.]
 [215.   3. 155.   3.  20.   1. 187.   3.   2.   1. 204.   3. 168.   3.
  153.   3.   5.   1.   3.   1.   6.   1. 154.   3.  17.   1.  10.   1.
   14.   1.   8.   1. 170.   3.]
 [ 14.   1.   3.   1. 212.   3. 155.   3. 215.   3. 154.   3.  20.   1.
  170.   3.  10.   1. 198.   2. 153.   3.  17.   1.   2.   1. 173.   3.
  168.   3. 156.   3.   8.   1.]]
[[244. 483.]
 [240. 557.]
 [238. 567.]
 [238. 550.]
 [245. 451.]
 [239. 556.]
 [242. 525.]
 [240. 502.]
 [246. 457.]
 [240. 496.]]