[[  8.   1. 156.   3. 168.   3. 153.   3. 154.   3. 170.   3.  17.   1.
    3.   1. 173.   3. 155.   3.  14.   1. 204.   3.  10.   1. 215.   3.
   20.   1. 175.   2.   2.   1.]
 [ 20.   1. 187.   3.  10.   1. 154.   3.   6.   1. 160.   3. 153.   3.
  212.   3. 215.   3. 168.   3. 155.   3.   2.   1.  17.   1.   8.   1.
  170.   3.  14.   1.   3.   1.]
 [153.   3. 170.   3. 173.   3. 215.   3.  17.   1.  20.   1. 156.   3.
    3.   1. 154.   3. 160.   3. 168.   3.   2.   1.  10.   1.  14.   1.
  155.   3.   4.   1. 150.   3.]
 [155.   3.   2.   1.  17.   1.   6.   1. 215.   3.   5.   1.   8.   1.
  187.   3. 153.   3. 201.   3. 168.   3.  10.   1.  14.   1. 170.   3.
   20.   1. 154.   3.   3.   1.]
 [158.   3. 155.   3. 215.   3. 153.   3.  10.   1.   3.   1.   2.   1.
  181.   2.  14.   1. 173.   3. 168.   3. 154.   3.  20.   1. 163.   3.
   17.   1. 170.   3.   8.   1.]
 [  6.   1.  20.   1. 155.   3. 215.   3.  10.   1.  17.   1.   3.   1.
  170.   3. 187.   3. 153.   3. 154.   3. 168.   3.   2.   1. 210.   3.
   14.   1. 156.   3.   8.   1.]
 [ 10.   1.   3.   1. 154.   3. 156.   3. 215.   3.   2.   1.  14.   1.
  155.   3. 187.   3. 168.   3.  20.   1.   4.   1.   6.   1.  17.   1.
  170.   3. 153.   3. 198.   3.]
 [156.   3.   3.   1. 153.   3.  17.   1. 198.   3. 154.   3.   2.   1.
   14.   1. 168.   3.   6.   1.  20.   1. 170.   3. 187.   3. 215.   3.
  155.   3.   4.   1.  10.   1.]
 [ 14.   1. 187.   3. 170.   3.  17.   1.   6.   1. 153.   3.  10.   1.
  168.   3. 155.   3. 154.   3. 160.   3.  20.   1.   2.   1. 215.   3.
    8.   1. 198.   3.   3.   1.]
 [168.   3. 156.   3.   3.   1. 153.   3. 154.   3. 173.   3.  10.   1.
   20.   1. 155.   3. 187.   3. 215.   3. 198.   3. 170.   3.   2.   1.
   14.   1.  17.   1.   6.   1.]]
[[-38. 504.]
 [-34. 451.]
 [-38. 548.]
 [-32. 456.]
 [-37. 510.]
 [-35. 458.]
 [-36. 504.]
 [-36. 504.]
 [-34. 456.]
 [-37. 504.]]