[[212.   3. 155.   3.  14.   1.   9.   1. 154.   3.  20.   1. 201.   3.
  161.   3. 153.   3.   3.   1.   8.   1. 215.   3. 168.   3.  10.   1.
    2.   1.  17.   1. 170.   3.]
 [212.   3. 150.   3. 210.   3.  17.   1. 153.   3.  10.   1.   8.   1.
  168.   3. 198.   2. 155.   3.   2.   1. 215.   3.  20.   1. 170.   3.
   14.   1.   3.   1. 156.   3.]
 [ 20.   1. 212.   3. 153.   3. 173.   3.   4.   1. 170.   3. 155.   3.
  168.   3.  14.   1. 154.   3.   8.   1. 215.   3.   2.   1.   3.   1.
   17.   1. 156.   3.  10.   1.]
 [155.   3. 187.   3. 212.   3.  20.   1. 215.   3.  17.   1. 156.   3.
   10.   1. 204.   3.   2.   1.   6.   1.  14.   1.   3.   1.   8.   1.
  168.   3. 210.   3. 153.   3.]
 [  3.   1. 163.   3. 154.   3. 168.   3.  14.   1. 155.   3.  20.   1.
  215.   3. 153.   3. 212.   3. 170.   3.  94.   2.   2.   1. 210.   3.
  156.   3.  17.   1.  10.   1.]
 [200.   3. 154.   3. 153.   3.  10.   1.   2.   1. 160.   3. 198.   3.
  202.   2. 170.   3.  20.   1. 156.   3. 155.   3. 168.   3.  14.   1.
  215.   3.   3.   1.  17.   1.]
 [212.   3.  10.   1. 163.   3.  14.   1. 158.   3.  17.   1.  20.   1.
  211.   3. 154.   3.   8.   1. 187.   3. 215.   3.   3.   1. 170.   3.
  168.   3.   2.   1. 153.   3.]
 [187.   3. 163.   3.   8.   1. 154.   3.  17.   1. 153.   3.  14.   1.
    6.   1.  20.   1. 170.   3.   2.   1. 156.   3.   3.   1. 215.   3.
   10.   1. 168.   3. 212.   3.]
 [211.   3.  14.   1.  17.   1. 170.   3.   3.   1.  20.   1. 186.   3.
  163.   3.   8.   1. 155.   3. 215.   3. 154.   3. 187.   3. 153.   3.
   10.   1. 168.   3.   2.   1.]
 [ 17.   1. 154.   3. 168.   3. 181.   2. 173.   3. 215.   3. 160.   3.
   20.   1. 198.   3. 170.   3.  14.   1. 153.   3. 156.   3.   2.   1.
    3.   1.  10.   1. 163.   3.]]
[[-36. 515.]
 [-34. 535.]
 [-37. 484.]
 [-33. 495.]
 [-36. 546.]
 [-37. 565.]
 [-30. 479.]
 [-33. 464.]
 [-32. 464.]
 [-36. 562.]]