[[  2.   1.   6.   1. 268.   2. 155.   3. 153.   3.   1.   1.  20.   1.
   17.   1. 212.   3.   8.   1. 168.   3. 215.   3. 158.   3. 184.   3.
   10.   1.  14.   1. 175.   2.]
 [  8.   1.   3.   1. 170.   3.  20.   1. 211.   3. 215.   3. 187.   3.
  155.   3. 216.   3.  17.   1. 188.   2. 214.   3. 205.   3.   2.   1.
   10.   1.   6.   1. 168.   3.]
 [170.   3. 168.   3.   6.   1.   2.   1. 164.   3. 173.   3.   8.   1.
  174.   3.  14.   1.  98.   2. 153.   3. 214.   3.  20.   1. 185.   2.
    3.   1.  17.   1. 215.   3.]
 [  3.   1.  20.   1.   2.   1. 168.   3.  14.   1.   4.   1.  17.   1.
  198.   3. 158.   3. 170.   3. 153.   3. 154.   3. 215.   3. 169.   3.
  155.   3.  26.   1.  10.   1.]
 [174.   3.  20.   1. 153.   3.   8.   1. 215.   3. 198.   3. 201.   3.
   17.   1.  26.   1. 163.   3.   3.   1. 168.   3. 216.   3. 155.   3.
    9.   1. 204.   3.   2.   1.]
 [  1.   1. 168.   3.   8.   1. 214.   3. 201.   3.   3.   1. 185.   2.
  163.   3.   2.   1.   4.   1. 153.   3. 204.   3. 181.   2. 215.   3.
   17.   1.  20.   1. 170.   3.]
 [  8.   1. 155.   3. 170.   3.  14.   1. 160.   3. 173.   3.   3.   1.
    2.   1.   4.   1.  20.   1. 204.   3. 211.   3.  17.   1. 168.   3.
    6.   1.   5.   1. 202.   2.]
 [  8.   1.  14.   1. 170.   3. 198.   3.   4.   1. 156.   3. 160.   3.
    5.   1.   2.   1.  20.   1. 215.   3.   3.   1. 158.   3. 204.   3.
  168.   3. 153.   3. 212.   3.]
 [268.   2.  17.   1.  20.   1. 164.   3. 175.   2. 168.   3.  71.   2.
    8.   1.   2.   1. 155.   3. 214.   3.   6.   1. 198.   3. 153.   3.
  201.   3. 215.   3.  14.   1.]
 [ 20.   1.  17.   1. 210.   3. 212.   3. 211.   3. 173.   3. 215.   3.
  174.   3.   4.   1.   2.   1. 187.   3.   8.   1. 147.   2.   6.   1.
  170.   3. 153.   3.  14.   1.]]
[[-25. 582.]
 [-18. 632.]
 [-26. 584.]
 [-34. 567.]
 [-28. 651.]
 [-24. 649.]
 [-16. 663.]
 [-25. 639.]
 [-24. 627.]
 [-20. 625.]]