[[1. 1. 1. 2. 1. 3.]
 [1. 1. 5. 1. 1. 2.]
 [1. 3. 1. 1. 5. 1.]
 [1. 2. 1. 1. 1. 3.]
 [1. 1. 1. 3. 1. 2.]
 [1. 3. 1. 1. 1. 2.]
 [1. 1. 1. 2. 1. 3.]
 [7. 2. 1. 1. 1. 2.]
 [1. 1. 5. 1. 1. 3.]
 [1. 3. 1. 1. 6. 1.]]
[[34. 33.]
 [41. 57.]
 [41. 57.]
 [34. 33.]
 [34. 33.]
 [34. 33.]
 [34. 33.]
 [41. 59.]
 [41. 57.]
 [41. 60.]]