[[1. 1. 7. 2. 1. 2.]
 [7. 2. 1. 1. 1. 3.]
 [1. 3. 5. 1. 1. 1.]
 [1. 2. 1. 3. 1. 1.]
 [1. 1. 1. 3. 5. 1.]
 [1. 3. 1. 1. 7. 2.]
 [1. 3. 5. 1. 1. 2.]
 [1. 3. 1. 1. 1. 2.]
 [1. 2. 1. 3. 5. 1.]
 [1. 1. 1. 2. 1. 3.]]
[[-1. 59.]
 [-1. 60.]
 [-1. 57.]
 [-8. 33.]
 [-1. 57.]
 [-1. 60.]
 [-1. 60.]
 [-8. 33.]
 [-1. 60.]
 [-8. 33.]]