[[1. 1. 1. 2. 1. 3.]
 [1. 3. 1. 1. 1. 2.]
 [1. 3. 1. 1. 1. 2.]
 [1. 1. 1. 3. 1. 2.]
 [1. 1. 1. 3. 1. 2.]
 [1. 1. 1. 2. 5. 1.]
 [5. 1. 1. 1. 1. 3.]
 [1. 3. 1. 2. 1. 1.]
 [1. 3. 1. 1. 1. 2.]
 [1. 1. 1. 3. 1. 2.]]
[[-8. 33.]
 [-8. 33.]
 [-8. 33.]
 [-8. 33.]
 [-8. 33.]
 [-1. 57.]
 [-1. 57.]
 [-8. 33.]
 [-8. 33.]
 [-8. 33.]]