[[ 20.   1.   8.   1. 153.   3.   2.   1.]
 [ 17.   1.  20.   1. 215.   3. 153.   3.]
 [168.   3.   2.   1. 153.   3.  20.   1.]
 [215.   3.   2.   1. 168.   3.  20.   1.]
 [ 20.   1. 153.   3.  17.   1. 215.   3.]
 [ 20.   1. 153.   3.   2.   1.  17.   1.]
 [153.   3.  20.   1. 215.   3.  17.   1.]
 [ 17.   1.  20.   1.   2.   1. 153.   3.]
 [  2.   1. 153.   3.  20.   1.  17.   1.]
 [153.   3. 215.   3.  20.   1.   2.   1.]]
[[  -6. 1060.]
 [ -13. 1097.]
 [ -10. 1068.]
 [ -12. 1120.]
 [ -13. 1097.]
 [ -10. 1037.]
 [ -13. 1097.]
 [ -10. 1037.]
 [ -10. 1037.]
 [ -11. 1088.]]