[[  4.   1. 205.   3.  20.   1.   5.   1.]
 [153.   3.   2.   1.  20.   1. 215.   3.]
 [156.   3. 215.   3. 168.   3.   2.   1.]
 [ 14.   1. 215.   3. 153.   3.   2.   1.]
 [186.   3.   8.   1. 168.   3.   2.   1.]
 [  3.   1. 168.   3.   2.   1. 170.   3.]
 [156.   3.   2.   1. 168.   3.  17.   1.]
 [ 14.   1. 160.   3. 168.   3.   2.   1.]
 [170.   3.   2.   1.  20.   1. 155.   3.]
 [  2.   1. 154.   3. 155.   3. 215.   3.]]
[[  -3. 1276.]
 [ -11. 1088.]
 [ -10. 1233.]
 [  -6. 1159.]
 [  -7. 1200.]
 [  -8. 1202.]
 [  -8. 1183.]
 [  -8. 1213.]
 [  -4. 1152.]
 [  -5. 1224.]]