[[211.   3.   2.   1. 185.   3.]
 [205.   3.  22.   1. 210.   3.]
 [  4.   1.   2.   1. 215.   3.]
 [193.   3. 215.   3. 233.   3.]
 [  4.   1. 210.   3.   2.   1.]
 [215.   3.   2.   1. 233.   3.]
 [ 29.   1. 225.   3. 185.   3.]
 [210.   3. 211.   3. 195.   3.]
 [185.   3. 225.   3. 211.   3.]
 [  2.   1. 185.   3. 211.   3.]]
[[206. 475.]
 [211. 506.]
 [208. 522.]
 [208. 563.]
 [208. 496.]
 [208. 521.]
 [205. 499.]
 [208. 530.]
 [204. 508.]
 [206. 475.]]