#,key,spread,hypervolume
1,moa_1_gen_100_pop_100_m_0.01_cr_0.85.txt,0.02976190476190476,4123.0
2,moa_1_gen_100_pop_100_m_0.01_cr_0.95.txt,0.02447089947089947,4134.0
3,moa_1_gen_100_pop_100_m_0.05_cr_0.85.txt,0.01464474678760393,4231.0
4,moa_1_gen_100_pop_100_m_0.05_cr_0.95.txt,0.01870748299319728,4225.0
5,moa_1_gen_100_pop_20_m_0.01_cr_0.85.txt,0.10582010582010581,2440.0
6,moa_1_gen_100_pop_20_m_0.01_cr_0.95.txt,0.04591836734693878,1900.0
7,moa_1_gen_100_pop_20_m_0.05_cr_0.85.txt,0.01927437641723356,4016.0
8,moa_1_gen_100_pop_20_m_0.05_cr_0.95.txt,0.03306878306878307,3642.0
9,moa_1_gen_200_pop_100_m_0.01_cr_0.85.txt,0.01464474678760393,4222.0
10,moa_1_gen_200_pop_100_m_0.01_cr_0.95.txt,0.016439909297052153,4225.0
11,moa_1_gen_200_pop_100_m_0.05_cr_0.85.txt,0.01417233560090703,4177.0
12,moa_1_gen_200_pop_100_m_0.05_cr_0.95.txt,0.010393046107331822,4228.0
13,moa_1_gen_200_pop_20_m_0.01_cr_0.85.txt,0.06207482993197279,3824.0
14,moa_1_gen_200_pop_20_m_0.01_cr_0.95.txt,0.05026455026455026,2990.0
15,moa_1_gen_200_pop_20_m_0.05_cr_0.85.txt,0.012849584278155708,4100.0
16,moa_1_gen_200_pop_20_m_0.05_cr_0.95.txt,0.02447089947089947,4200.0
