#,key,spread,hypervolume
1,moa_2_gen_100_pop_100_m_0.01_cr_0.85.txt,0.002826633165829146,4574.0
2,moa_2_gen_100_pop_100_m_0.01_cr_0.95.txt,0.0046063651591289785,4530.0
3,moa_2_gen_100_pop_100_m_0.05_cr_0.85.txt,0.00259108040201005,4615.0
4,moa_2_gen_100_pop_100_m_0.05_cr_0.95.txt,0.0023555276381909546,4727.0
5,moa_2_gen_100_pop_20_m_0.01_cr_0.85.txt,0.008793969849246231,2376.0
6,moa_2_gen_100_pop_20_m_0.01_cr_0.95.txt,0.0103643216080402,2879.0
7,moa_2_gen_100_pop_20_m_0.05_cr_0.85.txt,0.0021984924623115578,3457.0
8,moa_2_gen_100_pop_20_m_0.05_cr_0.95.txt,0.007851758793969849,4307.0
9,moa_2_gen_200_pop_100_m_0.01_cr_0.85.txt,0.0043969849246231155,4484.0
10,moa_2_gen_200_pop_100_m_0.01_cr_0.95.txt,0.003755757956448911,4591.0
11,moa_2_gen_200_pop_100_m_0.05_cr_0.85.txt,0.0024340452261306534,4660.0
12,moa_2_gen_200_pop_100_m_0.05_cr_0.95.txt,0.0023555276381909546,4660.0
13,moa_2_gen_200_pop_20_m_0.01_cr_0.85.txt,0.016292399497487436,2964.0
14,moa_2_gen_200_pop_20_m_0.01_cr_0.95.txt,0.017273869346733667,4215.0
15,moa_2_gen_200_pop_20_m_0.05_cr_0.85.txt,0.004213777219430486,4485.0
16,moa_2_gen_200_pop_20_m_0.05_cr_0.95.txt,0.0033893425460636514,4532.0
