[[  1,   1, 225,   3, 227,   3, 210,   3,   2,   1, 192,   3, 185,   3, 29,   1,  12,   1, 208,   3, 211,   3, 195,   3]
 [ 12,   1, 192,   3, 210,   3,  29,   1, 191,   3, 185,   3,  43,   1,  4,   1,   2,   1, 225,   3, 233,   3,  22,   1]
 [225,   3,  29,   1,   2,   1, 191,   3, 230,   3, 210,   3,  12,   1,192,   3, 185,   3, 195,   3, 233,   3, 215,   3]
 [225,   3,   1,   1, 227,   3,  22,   1, 210,   3, 191,   3, 185,   3,192,   3,   2,   1,  29,   1, 195,   3, 145,   2]
 [233,   3, 225,   3, 192,   3, 211,   3, 195,   3,  29,   1,  14,   1, 12,   1, 185,   3, 210,   3,   2,   1, 227,   3]
 [192,   3, 211,   3, 185,   3,  22,   1, 233,   3, 210,   3,  12,   1,196,   3, 195,   3, 225,   3, 191,   3,   2,   1]
 [233,   3, 225,   3, 192,   3, 191,   3, 130,   2, 203,   3,  29,   1,185,   3,   2,   1, 211,   3, 193,   3, 210,   3]
 [192,   3,  14,   1, 230,   3, 210,   3, 225,   3,  29,   1, 185,   3,191,   3,   2,   1, 233,   3, 211,   3, 196,   3]
 [227,   3, 210,   3, 185,   3,  12,   1,  29,   1, 233,   3, 191,   3,  2,   1, 193,   3, 225,   3, 195,   3,  22,   1]
 [185,   3, 215,   3,  22,   1, 195,   3, 192,   3, 225,   3,  29,   1,191,   3,   2,   1, 233,   3, 227,   3, 210,   3]]
[[171, 273]
 [172, 269]
 [170, 285]
 [173, 264]
 [173, 283]
 [175, 265]
 [174, 292]
 [172, 279]
 [176, 285]
 [170, 273]]