[[195,   3, 225,   3, 233,   3,   1,   1,   2,   1,  22,   1, 191,   3,192,   3,  29,   1, 185,   3, 210,   3, 211,   3]
 [210,   3, 225,   3,   1,   1, 233,   3, 185,   3, 192,   3,   2,   1,213,   3,  22,   1, 211,   3,  29,   1,  12,   1]
 [185,   3,  29,   1,   1,   1, 225,   3, 233,   3, 195,   3,  12,   1,  2,   1, 213,   3, 191,   3, 192,   3, 210,   3]
 [185,   3, 211,   3,   2,   1,  29,   1, 233,   3, 230,   3,  22,   1,210,   3, 191,   3, 192,   3, 225,   3,   1,   1]
 [ 29,   1, 213,   3, 210,   3, 227,   3,   1,   1, 185,   3,  12,   1,225,   3,   2,   1, 192,   3, 191,   3, 195,   3]
 [233,   3, 185,   3,  22,   1,   2,   1,  29,   1, 211,   3, 192,   3,210,   3, 195,   3,   1,   1, 191,   3, 225,   3]
 [ 29,   1, 192,   3,  22,   1, 191,   3, 185,   3, 233,   3,   1,   1,211,   3,   2,   1, 225,   3, 210,   3, 227,   3]
 [ 22,   1, 210,   3, 225,   3,   2,   1,  29,   1, 196,   3, 192,   3,191,   3, 233,   3,   1,   1, 205,   3, 185,   3]
 [ 12,   1, 205,   3, 185,   3,   1,   1,  22,   1, 192,   3, 210,   3, 29,   1, 191,   3,   2,   1, 225,   3, 233,   3]
 [ 29,   1, 191,   3, 185,   3, 225,   3,  22,   1,   2,   1, 192,   3,205,   3,   1,   1, 233,   3, 210,   3, 208,   3]]
[[169, 241]
 [170, 250]
 [168, 265]
 [170, 246]
 [169, 275]
 [169, 241]
 [169, 249]
 [175, 236]
 [173, 234]
 [175, 240]]